Fall 2021 Workshop
…
Note: Running code in the console is useful for testing code and seeing the current status of variables, but any code that you want in your final .Rmd file should be put in a code chunk in the .Rmd.

Going forward you will be asked to load any relevant packages at the beginning of each lab or R exercise you do in class.

Diving into the data

We are going to use a dataset called starwars from the dplyr package (which is part of the tidyverse). Simply run library(tidyverse) if you havent already and then run the following commands to inspect the first ten rows of the file.

# load starwars data
data(starwars)

# display starwars data
starwars

## # A tibble: 87 x 14
##    name    height  mass hair_color  skin_color eye_color birth_year sex   gender
##    <chr>    <int> <dbl> <chr>       <chr>      <chr>          <dbl> <chr> <chr> 
##  1 Luke S    172    77 blond       fair       blue            19   male  mascu
##  2 C-3PO      167    75 <NA>        gold       yellow         112   none  mascu
##  3 R2-D2       96    32 <NA>        white, bl red             33   none  mascu
##  4 Darth     202   136 none        white      yellow          41.9 male  mascu
##  5 Leia O    150    49 brown       light      brown           19   fema femin
##  6 Owen L    178   120 brown, grey light      blue            52   male  mascu
##  7 Beru W    165    75 brown       light      blue            47   fema femin
##  8 R5-D4       97    32 <NA>        white, red red             NA   none  mascu
##  9 Biggs     183    84 black       light      brown           24   male  mascu
## 10 Obi-Wa    182    77 auburn, wh fair       blue-gray       57   male  mascu
## #  with 77 more rows, and 5 more variables: homeworld <chr>, species <chr>,
## #   films <list>, vehicles <list>, starships <list>
…
Exercise: Try selecting a different column to observe and only view the first 5 rows.

# Write your code here

Mutate

We can create new columns in our data frame through the mutate() function.

starwars <- starwars %>%
  mutate(is_human = if_else(species == "Human", TRUE, FALSE))

starwars %>%
  select(species, is_human)

## # A tibble: 87 x 2
##    species is_human
##    <chr>   <lgl>   
##  1 Human   TRUE    
##  2 Droid   FALSE   
##  3 Droid   FALSE   
##  4 Human   TRUE    
##  5 Human   TRUE    
##  6 Human   TRUE    
##  7 Human   TRUE    
##  8 Droid   FALSE   
##  9 Human   TRUE    
## 10 Human   TRUE    
## #  with 77 more rows
…
Exercise: Try filtering for characters with brown hair color. Dont forget to spell the name of the variable as it appears in the data frame and put brown in quotes since its a character string.

# Write your code here

Booleans

In addition to simple mathematical operators like subtraction and division, you can ask R to make logical comparisons like greater than, >, less than, <, and equality, ==. For example, above we asked R to compare the species variable and the value "Human" using the equality boolean operator, ==.

We can ask if the mass of the character is greater than 50 kg:

starwars %>%
  filter(mass > 50)

## # A tibble: 46 x 15
##    name    height  mass hair_color  skin_color eye_color birth_year sex   gender
##    <chr>    <int> <dbl> <chr>       <chr>      <chr>          <dbl> <chr> <chr> 
##  1 Luke S    172    77 blond       fair       blue            19   male  mascu
##  2 C-3PO      167    75 <NA>        gold       yellow         112   none  mascu
##  3 Darth     202   136 none        white      yellow          41.9 male  mascu
##  4 Owen L    178   120 brown, grey light      blue            52   male  mascu
##  5 Beru W    165    75 brown       light      blue            47   fema femin
##  6 Biggs     183    84 black       light      brown           24   male  mascu
##  7 Obi-Wa    182    77 auburn, wh fair       blue-gray       57   male  mascu
##  8 Anakin    188    84 blond       fair       blue            41.9 male  mascu
##  9 Chewba    228   112 brown       unknown    blue           200   male  mascu
## 10 Han So    180    80 brown       fair       brown           29   male  mascu
## #  with 36 more rows, and 6 more variables: homeworld <chr>, species <chr>,
## #   films <list>, vehicles <list>, starships <list>, is_human <lgl>
…
